<?xml version="1.0" encoding="utf-8"?>
<!-- Generator: Adobe Illustrator 19.0.1, SVG Export Plug-In . SVG Version: 6.00 Build 0)  -->
<svg version="1.1" id="Layer_1" xmlns="http://www.w3.org/2000/svg" xmlns:xlink="http://www.w3.org/1999/xlink" x="0px" y="0px"
	 width="67.1px" height="56.8px" viewBox="-271 368.2 67.1 56.8" enable-background="new -271 368.2 67.1 56.8"
	 xml:space="preserve">
<g>
	<g>
		<path d="M-262.6,425c-4.6,0-8.4-3.8-8.4-8.5c0-4.7,3.8-8.5,8.4-8.5s8.4,3.8,8.4,8.5C-254.2,421.2-258,425-262.6,425z
			 M-262.6,410.2c-3.4,0-6.2,2.8-6.2,6.3s2.8,6.3,6.2,6.3c3.4,0,6.2-2.8,6.2-6.3S-259.2,410.2-262.6,410.2z"/>
	</g>
	<g>
		<path d="M-223.8,425c-8.4,0-15.2-6.8-15.2-15.3s6.8-15.3,15.2-15.3c8.4,0,15.2,6.8,15.2,15.3S-215.4,425-223.8,425z M-223.8,396.6
			c-7.2,0-13,5.9-13,13.1s5.8,13.1,13,13.1s13-5.9,13-13.1S-216.6,396.6-223.8,396.6z"/>
	</g>
	<g>
		<path d="M-216.9,404.6c-0.3,0-0.6-0.1-0.8-0.4c-1.6-1.8-3.7-2.7-6-2.7c-1.9,0-3.6,0.6-5.1,1.9c-0.5,0.4-1.1,0.3-1.5-0.2
			c-0.4-0.5-0.3-1.1,0.2-1.5c1.9-1.5,4.1-2.3,6.5-2.3c2.9,0,5.6,1.2,7.6,3.5c0.4,0.4,0.4,1.1-0.1,1.5
			C-216.4,404.5-216.6,404.6-216.9,404.6z"/>
	</g>
	<g>
		<path d="M-232.9,410.8c-0.6,0-1.1-0.5-1.1-1.1c0-0.7,0.1-1.3,0.2-1.9l0-0.2c0.1-0.6,0.6-1,1.2-0.9c0.6,0.1,1,0.6,0.9,1.2l0,0.2
			c-0.1,0.6-0.2,1.1-0.2,1.6C-231.8,410.3-232.3,410.8-232.9,410.8z"/>
	</g>
	<g>
		<path d="M-223.7,420.1c-0.6,0-1.1-0.5-1.1-1.1s0.5-1.1,1.1-1.1c0.5,0,1.1-0.1,1.6-0.2c3.8-0.8,6.4-4.1,6.4-8.1
			c0-0.6,0.5-1.1,1.1-1.1s1.1,0.5,1.1,1.1c0,4.9-3.3,9.1-8.1,10.1C-222.3,419.9-223,420.1-223.7,420.1z"/>
	</g>
	<g>
		<path d="M-205,410.8c-0.6,0-1.1-0.5-1.1-1.1c0-9.9-8-17.9-17.7-17.9c-0.6,0-1.1-0.5-1.1-1.1s0.5-1.1,1.1-1.1
			c11,0,19.9,9,19.9,20.1C-203.9,410.3-204.4,410.8-205,410.8z"/>
	</g>
	<g>
		<path d="M-223.8,391.8h-17.8c-0.6,0-1.1-0.5-1.1-1.1s0.5-1.1,1.1-1.1h17.8c0.6,0,1.1,0.5,1.1,1.1S-223.2,391.8-223.8,391.8z"/>
	</g>
	<g>
		<path d="M-223.8,391.8c-0.6,0-1.1-0.5-1.1-1.1v-15.8c0-0.6,0.5-1.1,1.1-1.1s1.1,0.5,1.1,1.1v15.8
			C-222.7,391.3-223.2,391.8-223.8,391.8z"/>
	</g>
	<g>
		<path d="M-266.9,411.6c-0.6,0-1.1-0.5-1.1-1.1v-14.3c0-0.6,0.5-1.1,1.1-1.1h23.2l3-15.5c0.1-0.6,0.7-0.9,1.2-0.8
			c0.6,0.1,1,0.7,0.8,1.2l-3.2,16.4c-0.1,0.5-0.5,0.9-1,0.9h-23v13.2C-265.8,411.1-266.3,411.6-266.9,411.6z"/>
	</g>
	<g>
		<path d="M-241.6,414.9h-13.7c-0.6,0-1.1-0.5-1.1-1.1s0.5-1.1,1.1-1.1h13.7c0.6,0,1.1,0.5,1.1,1.1S-241,414.9-241.6,414.9z"/>
	</g>
	<g>
		<path d="M-262.2,379.3c-0.6,0-1.1-0.5-1.1-1.1c0-2.5,2-4.5,4.5-4.5c0.6,0,1.1,0.5,1.1,1.1s-0.5,1.1-1.1,1.1c-1.3,0-2.3,1-2.3,2.3
			C-261.1,378.8-261.6,379.3-262.2,379.3z"/>
	</g>
	<g>
		<path d="M-262.2,397.3c-0.6,0-1.1-0.5-1.1-1.1v-18c0-0.6,0.5-1.1,1.1-1.1s1.1,0.5,1.1,1.1v18
			C-261.1,396.8-261.6,397.3-262.2,397.3z"/>
	</g>
	<g>
		<g>
			<path d="M-253.4,404.7c-0.4,0-0.7-0.2-0.9-0.5l-1.8-3.1c-0.3-0.5-0.1-1.2,0.4-1.5c0.5-0.3,1.2-0.1,1.5,0.4l1.8,3.1
				c0.3,0.5,0.1,1.2-0.4,1.5C-253,404.6-253.2,404.7-253.4,404.7z"/>
		</g>
		<g>
			<path d="M-249.1,404.7c-0.4,0-0.7-0.2-0.9-0.5l-1.8-3.1c-0.3-0.5-0.1-1.2,0.4-1.5c0.5-0.3,1.2-0.1,1.5,0.4l1.8,3.1
				c0.3,0.5,0.1,1.2-0.4,1.5C-248.7,404.6-248.9,404.7-249.1,404.7z"/>
		</g>
		<g>
			<path d="M-244.8,404.7c-0.4,0-0.7-0.2-0.9-0.5l-1.8-3.1c-0.3-0.5-0.1-1.2,0.4-1.5c0.5-0.3,1.2-0.1,1.5,0.4l1.8,3.1
				c0.3,0.5,0.1,1.2-0.4,1.5C-244.4,404.6-244.6,404.7-244.8,404.7z"/>
		</g>
	</g>
	<g>
		<path d="M-213.8,376h-24.7c-2.1,0-3.9-1.8-3.9-3.9c0-2.1,1.8-3.9,3.9-3.9h24.1c0.6,0,1.1,0.5,1.1,1.1s-0.5,1.1-1.1,1.1h-24.1
			c-0.9,0-1.7,0.8-1.7,1.7s0.8,1.7,1.7,1.7h24.7c0.6,0,1.1,0.5,1.1,1.1S-213.2,376-213.8,376z"/>
	</g>
	<g>
		<path d="M-211.3,396.6c-0.5,0-1-0.4-1.1-0.9l-3-26.2c-0.1-0.6,0.4-1.1,0.9-1.2c0.6-0.1,1.1,0.4,1.2,0.9l3,26.2
			c0.1,0.6-0.4,1.1-0.9,1.2C-211.2,396.6-211.3,396.6-211.3,396.6z"/>
	</g>
</g>
</svg>
