<?xml version="1.0" encoding="utf-8"?>
<!-- Generator: Adobe Illustrator 19.0.1, SVG Export Plug-In . SVG Version: 6.00 Build 0)  -->
<svg version="1.1" id="Layer_1" xmlns="http://www.w3.org/2000/svg" xmlns:xlink="http://www.w3.org/1999/xlink" x="0px" y="0px"
	 width="69.5px" height="68.1px" viewBox="-270 362.9 69.5 68.1" enable-background="new -270 362.9 69.5 68.1"
	 xml:space="preserve">
<g>
	<path fill="#3DB54A" d="M-234.8,407.8c-0.4,0-0.7-0.1-1-0.4l-15-14.9c-0.6-0.6-0.6-1.4,0-2c0.6-0.6,1.4-0.6,2,0l15,14.9
		c0.6,0.6,0.6,1.4,0,2C-234.1,407.7-234.4,407.8-234.8,407.8z"/>
</g>
<g>
	<path fill="#3DB54A" d="M-234.8,407.8c-0.4,0-0.7-0.1-1-0.4c-0.6-0.6-0.6-1.5,0-2l32.9-32.9c0.6-0.6,1.5-0.6,2,0
		c0.6,0.6,0.6,1.5,0,2l-32.9,32.9C-234.1,407.7-234.4,407.8-234.8,407.8z"/>
</g>
<g>
	<path fill="#3DB54A" d="M-236,431.1c-18.8,0-34.1-15.3-34.1-34.1c0.1-18.8,15.5-34.1,34.2-34.1c9.3,0,18,3.7,24.4,10.3
		c0.5,0.6,0.5,1.5,0,2c-0.6,0.5-1.5,0.5-2,0c-5.9-6.1-13.9-9.5-22.4-9.5c-17.2,0-31.3,14-31.4,31.3c0,17.2,14,31.3,31.3,31.3
		c17.2,0,31.3-14,31.3-31.3c0-5.8-1.6-11.5-4.7-16.5c-0.4-0.7-0.2-1.5,0.5-2c0.7-0.4,1.5-0.2,2,0.5c3.3,5.4,5.1,11.6,5.1,17.9
		C-201.9,415.8-217.2,431.1-236,431.1z"/>
</g>
</svg>
