<?xml version="1.0" encoding="utf-8"?>
<!-- Generator: Adobe Illustrator 19.0.1, SVG Export Plug-In . SVG Version: 6.00 Build 0)  -->
<svg version="1.1" id="Layer_1" xmlns="http://www.w3.org/2000/svg" xmlns:xlink="http://www.w3.org/1999/xlink" x="0px" y="0px"
	 width="59.3px" height="67.8px" viewBox="0 0 59.3 67.8" enable-background="new 0 0 59.3 67.8" xml:space="preserve">
<g>
	<path d="M32.3,67.8H7.7c-0.6,0-1.1-0.5-1.1-1.1v-59c0-0.6,0.5-1.1,1.1-1.1h40.9c0.6,0,1.1,0.5,1.1,1.1v27.8c0,0.6-0.5,1.1-1.1,1.1
		s-1.1-0.5-1.1-1.1V8.9H8.7v56.8h23.5c0.6,0,1.1,0.5,1.1,1.1S32.9,67.8,32.3,67.8z"/>
</g>
<g>
	<path d="M4,61.1H1.1C0.5,61.1,0,60.6,0,60v-59C0,0.5,0.5,0,1.1,0H42C42.6,0,43,0.5,43,1.1v3.2c0,0.6-0.5,1.1-1.1,1.1
		s-1.1-0.5-1.1-1.1V2.1H2.1V59H4C4.6,59,5,59.4,5,60S4.6,61.1,4,61.1z"/>
</g>
<g>
	<path d="M39.2,19.2H17.1c-0.6,0-1.1-0.5-1.1-1.1s0.5-1.1,1.1-1.1h22.1c0.6,0,1.1,0.5,1.1,1.1S39.8,19.2,39.2,19.2z"/>
</g>
<g>
	<path d="M39.2,25.5H17.1c-0.6,0-1.1-0.5-1.1-1.1s0.5-1.1,1.1-1.1h22.1c0.6,0,1.1,0.5,1.1,1.1S39.8,25.5,39.2,25.5z"/>
</g>
<g>
	<path d="M39.2,32.7H17.1c-0.6,0-1.1-0.5-1.1-1.1s0.5-1.1,1.1-1.1h22.1c0.6,0,1.1,0.5,1.1,1.1S39.8,32.7,39.2,32.7z"/>
</g>
<g>
	<g>
		<g>
			<g>
				<path d="M48.5,54.7c-0.1,0-0.3,0-0.4-0.1c-0.7-0.3-6.8-3.2-6.8-7.1c0-0.6,0.5-1.1,1.1-1.1s1.1,0.5,1.1,1.1c0,2,3.4,4.1,5.1,5
					c1.7-0.8,5.1-3,5.1-5c0-0.6,0.5-1.1,1.1-1.1s1.1,0.5,1.1,1.1c0,4-6.1,6.8-6.8,7.1C48.8,54.7,48.7,54.7,48.5,54.7z"/>
			</g>
			<g>
				<path d="M42.4,48.5c-0.6,0-1.1-0.5-1.1-1.1v-6.9c0-0.6,0.5-1.1,1.1-1.1s1.1,0.5,1.1,1.1v6.9C43.4,48.1,42.9,48.5,42.4,48.5z"/>
			</g>
			<g>
				<path d="M54.7,48.5c-0.6,0-1.1-0.5-1.1-1.1v-6.9c0-0.6,0.5-1.1,1.1-1.1s1.1,0.5,1.1,1.1v6.9C55.8,48.1,55.3,48.5,54.7,48.5z"/>
			</g>
		</g>
		<g>
			<g>
				<path d="M54.7,60.9c-0.6,0-1.1-0.5-1.1-1.1c0-2-3.4-4.1-5.1-5c-1.7,0.8-5.1,3-5.1,5c0,0.6-0.5,1.1-1.1,1.1s-1.1-0.5-1.1-1.1
					c0-4,6.1-6.8,6.8-7.1c0.3-0.1,0.6-0.1,0.9,0c0.7,0.3,6.8,3.2,6.8,7.1C55.8,60.4,55.3,60.9,54.7,60.9z"/>
			</g>
			<g>
				<path d="M54.7,67.8c-0.6,0-1.1-0.5-1.1-1.1v-6.9c0-0.6,0.5-1.1,1.1-1.1s1.1,0.5,1.1,1.1v6.9C55.8,67.3,55.3,67.8,54.7,67.8z"/>
			</g>
			<g>
				<path d="M42.4,67.8c-0.6,0-1.1-0.5-1.1-1.1v-6.9c0-0.6,0.5-1.1,1.1-1.1s1.1,0.5,1.1,1.1v6.9C43.4,67.3,42.9,67.8,42.4,67.8z"/>
			</g>
		</g>
		<g>
			<path d="M58.3,41.5H38.9c-0.6,0-1.1-0.5-1.1-1.1s0.5-1.1,1.1-1.1h19.4c0.6,0,1.1,0.5,1.1,1.1S58.9,41.5,58.3,41.5z"/>
		</g>
		<g>
			<path d="M58.3,67.8H38.9c-0.6,0-1.1-0.5-1.1-1.1s0.5-1.1,1.1-1.1h19.4c0.6,0,1.1,0.5,1.1,1.1S58.9,67.8,58.3,67.8z"/>
		</g>
	</g>
</g>
</svg>
